wuerfel01 – datenwerk
…
.20

Lösung

Erstellen wir uns eine Tabelle, die alle Permutationen der beiden Würfelergebnisse fasst, das sind 36 Paare: (1,1), (1,2), …, (1,6), …, (6,6).

Das kann man von Hand erstellen, halbautomatisch in Excel oder z.B. so:

library(tidyverse)
d <- expand_grid(wuerfel1 = 1:6,
         wuerfel2 = 1:6)
d

# A tibble: 36 × 2
   wuerfel1 wuerfel2
      <int>    <int>
 1        1        1
 2        1        2
 3        1        3
 4        1        4
 5        1        5
 6        1        6
 7        2        1
 8        2        2
 9        2        3
10        2        4
# ℹ 26 more rows
…
