…
Boosting braucht nicht unbedingt skalierte Prädiktoren (sd=1),
aber es kann helfen, zu z-transformieren.

Rezept checken

## # A tibble: 3,000 × 4
##    budget popularity runtime  revenue
##     <dbl>      <dbl>   <dbl>    <dbl>
##  1 -0.230    -0.156   -0.673 12314651
##  2  0.472    -0.0177   0.233 95149435
##  3 -0.519     4.61    -0.129 13092000
##  4 -0.576    -0.437    0.640 16000000
##  5 -0.609    -0.604    0.459  3923970
##  6 -0.392    -0.638   -1.13   3261638
##  7 -0.230    -0.0972  -0.718 85446075
##  8 -0.609    -0.538   -1.08   2586511
##  9 -0.609    -0.129   -0.356 34327391
## 10 -0.446    -0.313   -0.763 18750246
## # … with 2,990 more rows
…
