tmdb03 | Datenwerk
…
d_train_baked <- 
prep(rec1) %>% 
  bake(new_data = NULL) 

d_train_baked

## # A tibble: 3,000 × 16
##    popularity runtime budget  revenue release_date_year release_date_month_Feb
##         <dbl>   <dbl>  <dbl>    <dbl>             <dbl>                  <dbl>
##  1      6.58       93  16.5  12314651              2015                      1
##  2      8.25      113  17.5  95149435              2004                      0
##  3     64.3       105  15.0  13092000              2014                      0
##  4      3.17      122  14.0  16000000              2012                      0
##  5      1.15      118   2.30  3923970              2009                      1
##  6      0.743      83  15.9   3261638              1987                      0
##  7      7.29       92  16.5  85446075              2012                      0
##  8      1.95       84   2.30  2586511              2004                      0
##  9      6.90      100   2.30 34327391              1996                      1
## 10      4.67       91  15.6  18750246              2003                      0
## # … with 2,990 more rows, and 10 more variables: release_date_month_Mar <dbl>,
## #   release_date_month_Apr <dbl>, release_date_month_May <dbl>,
## #   release_date_month_Jun <dbl>, release_date_month_Jul <dbl>,
## #   release_date_month_Aug <dbl>, release_date_month_Sep <dbl>,
## #   release_date_month_Oct <dbl>, release_date_month_Nov <dbl>,
## #   release_date_month_Dec <dbl>
…
