datenwerk - tmdb02
…
...
and 70 more lines.

Vorhersage Test-Sample

predict(tree_last_fit, new_data = d_test)

# A tibble: 4,398 × 1
        .pred
        <dbl>
 1   5299779.
 2   5299779.
 3  12713888.
 4  23263724.
 5   5299779.
 6  23263724.
 7  11244273.
 8  65093270.
 9  42769814.
10 372118475.
# ℹ 4,388 more rows
…
