datenwerk - bike04
…
Alternativ:

grid <-
  grid_latin_hypercube(extract_parameter_set_dials(m1), size = 50)
grid

# A tibble: 50 × 3
   cost_complexity tree_depth min_n
             <dbl>      <int> <int>
 1   0.000390               6    21
 2   0.0000000863           8    15
 3   0.000576              12    37
 4   0.0000000469           2    31
 5   0.0000000283           5    19
 6   0.00000000207          4     5
 7   0.000000614            2    23
 8   0.00000000952         14    13
 9   0.00000413            11     7
10   0.0000472              7    12
# ℹ 40 more rows
…
