datenwerk - tmdb02
…
...
and 4 more lines.

Vorhersage Test-Sample

predict(tree_last_fit, new_data = d_test)

# A tibble: 4,398 × 1
        .pred
        <dbl>
 1   6074563.
 2   6074563.
 3  21093221.
 4  21093221.
 5   6074563.
 6  21093221.
 7   6074563.
 8  68256659.
 9  43919378.
10 205557624.
# ℹ 4,388 more rows
…
