count-words01 – datenwerk
…
tokenizers::count_words

tokenizers::count_words(test_text$text)

[1] 3 2 2 3

test_text |> 
  mutate(n_words = tokenizers::count_words(text))

# A tibble: 4 × 4
     id text                 valence n_words
  <int> <chr>                  <dbl>   <int>
1     1 Abbau ist jetzt           -1       3
2     2 Test heute                 0       2
3     3 Abbruch morgen            -1       2
4     4 Abmachung lore ipsum       1       3

qdap:wc

qdap::wc(test_text$text)

[1] 3 2 2 3

Germeval-Datensatz

stringr::str_count

tic()
method1 <- germeval_train$text |> 
  map_int(str_count, "\\w+")
toc()

0.206 sec elapsed

method1 |> str()

 int [1:5009] 15 19 11 21 15 44 34 8 13 14 ...

print(method1, max = 20)

 [1] 15 19 11 21 15 44 34  8 13 14 14 28 39 22 43 28 19 23 25 13
 [ reached getOption("max.print") -- omitted 4989 entries ]
…
