tidymodels-tree2 – datenwerk
…
Workflows

wf_tree <-
  workflow() %>%  
  add_recipe(rec_plain) %>% 
  add_model(mod_tree)

Tuning/Fitting

Tuninggrid:

tune_grid <- grid_regular(extract_parameter_set_dials(mod_tree), levels = 5)
tune_grid

# A tibble: 125 × 3
   cost_complexity tree_depth min_n
             <dbl>      <int> <int>
 1    0.0000000001          1     2
 2    0.0000000178          1     2
 3    0.00000316            1     2
 4    0.000562              1     2
 5    0.1                   1     2
 6    0.0000000001          4     2
 7    0.0000000178          4     2
 8    0.00000316            4     2
 9    0.000562              4     2
10    0.1                   4     2
# ℹ 115 more rows
…
