tmdb03 – datenwerk
…
oper 1 step mutate [training] 
oper 2 step log [training] 
oper 3 step mutate [training] 
oper 4 step date [training] 
oper 5 step impute bag [training] 
oper 6 step dummy [training] 
The retained training set is ~ 0.1 Mb  in memory.

d_train_baked <- 
prep(rec1) %>% 
  bake(new_data = NULL) 

d_train_baked

# A tibble: 3,000 × 5
   popularity runtime budget  revenue release_date_year
        <dbl>   <dbl>  <dbl>    <dbl>             <int>
 1      6.58       93  16.5  12314651              2015
 2      8.25      113  17.5  95149435              2004
 3     64.3       105  15.0  13092000              2014
 4      3.17      122  14.0  16000000              2012
 5      1.15      118   2.30  3923970              2009
 6      0.743      83  15.9   3261638              1987
 7      7.29       92  16.5  85446075              2012
 8      1.95       84   2.30  2586511              2004
 9      6.90      100   2.30 34327391              1996
10      4.67       91  15.6  18750246              2003
# ℹ 2,990 more rows
…
