rf-finalize3 – datenwerk
…
145.827 sec elapsed

Dann schauen wir uns das Ergebnisobjekt vom Tuning an.

wf1_fit %>% 
  collect_metrics() %>% 
  filter(.metric == "rmse") %>% 
  arrange(mtry)

# A tibble: 60 × 9
    mtry trees min_n .metric .estimator  mean     n std_err .config             
   <int> <int> <int> <chr>   <chr>      <dbl> <int>   <dbl> <chr>               
 1     1  1835    33 rmse    standard    332.    10    13.7 Preprocessor1_Model…
 2     1  1742    14 rmse    standard    316.    10    13.1 Preprocessor1_Model…
 3     1   510    29 rmse    standard    327.    10    14.1 Preprocessor1_Model…
 4     1   826     3 rmse    standard    310.    10    13.0 Preprocessor1_Model…
 5     2   672    15 rmse    standard    283.    10    11.2 Preprocessor1_Model…
 6     2   147    22 rmse    standard    287.    10    10.7 Preprocessor1_Model…
 7     2  1927     7 rmse    standard    283.    10    11.4 Preprocessor1_Model…
 8     2   386    23 rmse    standard    288.    10    11.9 Preprocessor1_Model…
 9     2    81    29 rmse    standard    292.    10    12.3 Preprocessor1_Model…
10     2   359     6 rmse    standard    283.    10    11.1 Preprocessor1_Model…
# ℹ 50 more rows
…
